{
  "EDITOR_STATE": {
    "allProjectFiles": {
      "a5ba85af-f865-4fe1-bd46-e759f7e64f40": {
        "id": "a5ba85af-f865-4fe1-bd46-e759f7e64f40",
        "parent": null,
        "name": "test-Induuu_1122.js",
        "type": "JS_LAMBDA",
        "isDirectory": false,
        "children": [],
        "isRemovable": true,
        "filePath": "test-Induuu_1122.js",
        "cursor": {
          "lineNumber": 1,
          "column": 1
        },
        "config": {
          "runtime": "nodejs10.x",
          "handler": "handler",
          "timeout": 60,
          "memory": 128,
          "layers": [],
          "name": "testInduuu1122"
        },
        "triggers": [],
        "lastUpdated": 1597989185638
      }
    },
    "openFiles": [
      "a5ba85af-f865-4fe1-bd46-e759f7e64f40"
    ],
    "currentFileId": "a5ba85af-f865-4fe1-bd46-e759f7e64f40",
    "resources": {
      "s3as2TestLahiru": {
        "name": "s3as2TestLahiru",
        "type": "S3",
        "config": {
          "mode": 1,
          "bucket": {
            "name": "as2-test-lahiru"
          }
        }
      }
    },
    "customTemplate": {
      "syntax": "JSON",
      "overrideDefault": false,
      "dialect": null,
      "definitions": null
    },
    "envVariables": [
      {
        "lambdaId": "all",
        "varKey": "SIGMA_AWS_ACC_ID",
        "varValue": null,
        "shouldPersist": false,
        "displayOnly": false,
        "editable": false
      }
    ],
    "packageJSON": {
      "dependencies": {
        "aws-sdk": {
          "name": "aws-sdk",
          "language": "nodejs",
          "version": "2.644.0",
          "dev": true,
          "notRemovable": false
        }
      }
    }
  },
  "PROJECT_META": {
    "sigmaVersion": "1.4.2",
    "projectName": "test-Induuu_1122",
    "projectDescription": "",
    "projectVersion": "1.0.0",
    "projectRegion": "us-west-1",
    "platform": "AWS",
    "language": "nodejs",
    "platformRegions": {},
    "lastSave": 1597989260882
  },
  "VCS_STATE": {
    "provider": "BitBucket",
    "repo": {
      "name": "test-induuu_1122",
      "url": "https://bitbucket.org/Indunil1992/test-induuu_1122"
    }
  }
}